(module mss1260 (layer F.Cu) (tedit 5CDF22FF)
  (attr smd)
  (fp_text reference REF** (at 0 0.5) (layer F.SilkS)
    (effects (font (size 1 1) (thickness 0.15)))
  )
  (fp_text value mss1260 (at 0 -0.5) (layer F.Fab)
    (effects (font (size 1 1) (thickness 0.15)))
  )
  (fp_line (start 6.15 6.15) (end -6.15 6.15) (layer F.SilkS) (width 0.12))
  (fp_line (start 6.15 -6.15) (end 6.15 6.15) (layer F.SilkS) (width 0.12))
  (fp_line (start 6.15 -6.15) (end -6.15 -6.15) (layer F.SilkS) (width 0.12))
  (fp_line (start -6.15 6.15) (end -6.15 -6.15) (layer F.SilkS) (width 0.12))
  (fp_line (start 6.2 -6.2) (end -6.2 -6.2) (layer F.CrtYd) (width 0.12))
  (fp_line (start -6.2 6.2) (end -6.2 -6.2) (layer F.CrtYd) (width 0.12))
  (fp_line (start 6.2 6.2) (end -6.2 6.2) (layer F.CrtYd) (width 0.12))
  (fp_line (start 6.2 6.2) (end 6.2 -6.2) (layer F.CrtYd) (width 0.12))
  (pad 1 smd rect (at 0 -4.25) (size 5.5 4) (layers F.Cu F.Paste F.Mask))
  (pad 2 smd rect (at 0 4.25) (size 5.5 4) (layers F.Cu F.Paste F.Mask))
)
