EESchema Schematic File Version 4
LIBS:solarMine-cache
EELAYER 29 0
EELAYER END
$Descr A4 11693 8268
encoding utf-8
Sheet 1 1
Title ""
Date ""
Rev ""
Comp ""
Comment1 ""
Comment2 ""
Comment3 ""
Comment4 ""
$EndDescr
$Comp
L Connector:Conn_01x01_Male J2
U 1 1 5CDBBE2C
P 2450 2000
F 0 "J2" H 2558 2181 50  0000 C CNN
F 1 "PV-" H 2558 2090 50  0000 C CNN
F 2 "Connector_Wire:SolderWirePad_1x01_SMD_5x10mm" H 2450 2000 50  0001 C CNN
F 3 "~" H 2450 2000 50  0001 C CNN
	1    2450 2000
	1    0    0    -1  
$EndComp
$Comp
L power:GND #PWR0107
U 1 1 5CDBDC36
P 2750 2000
F 0 "#PWR0107" H 2750 1750 50  0001 C CNN
F 1 "GND" H 2755 1827 50  0000 C CNN
F 2 "" H 2750 2000 50  0001 C CNN
F 3 "" H 2750 2000 50  0001 C CNN
	1    2750 2000
	1    0    0    -1  
$EndComp
$Comp
L Connector:USB_A J3
U 1 1 5CDD345E
P 1500 2750
F 0 "J3" H 1557 3217 50  0000 C CNN
F 1 "USB_A" H 1557 3126 50  0000 C CNN
F 2 "Connector_USB:USB_A_CNCTech_1001-011-01101_Horizontal" H 1650 2700 50  0001 C CNN
F 3 "http://cnctech.us/pdfs/1002-001-01000.pdf" H 1650 2700 50  0001 C CNN
F 4 "1175-1015-ND" H 1500 2750 50  0001 C CNN "Digikey"
	1    1500 2750
	1    0    0    -1  
$EndComp
$Comp
L power:+5V #PWR0111
U 1 1 5CDB66DF
P 2500 3400
F 0 "#PWR0111" H 2500 3250 50  0001 C CNN
F 1 "+5V" V 2600 3500 50  0000 C CNN
F 2 "" H 2500 3400 50  0001 C CNN
F 3 "" H 2500 3400 50  0001 C CNN
	1    2500 3400
	0    1    1    0   
$EndComp
$Comp
L power:GND #PWR0112
U 1 1 5CDB7569
P 1800 2550
F 0 "#PWR0112" H 1800 2300 50  0001 C CNN
F 1 "GND" H 1805 2377 50  0000 C CNN
F 2 "" H 1800 2550 50  0001 C CNN
F 3 "" H 1800 2550 50  0001 C CNN
	1    1800 2550
	0    -1   -1   0   
$EndComp
NoConn ~ 1800 2750
NoConn ~ 1800 2850
NoConn ~ 1400 3150
Text GLabel 1500 850  1    50   Input ~ 0
Off
Text GLabel 2400 1050 2    50   Input ~ 0
PVin
Text Notes 550  650  0    50   ~ 0
Really turns on the system when the solar panel gets above 15ish V\nStarts to turn on at 7ish volts\n
Text Notes 1750 5350 0    50   ~ 0
Second stage Buck Boost converter, 5V output\n2.7V - 40V input
$Comp
L Device:L L1
U 1 1 5CDD8153
P 5550 5800
F 0 "L1" H 5650 5800 50  0000 C CNN
F 1 "33uH" H 5450 5800 50  0000 C CNN
F 2 "mss1260:mss1260" H 5550 5800 50  0001 C CNN
F 3 "https://www.coilcraft.com/pdfs/mss1260.pdf" H 5550 5800 50  0001 C CNN
F 4 "https://www.coilcraft.com/mss1260.cfm#" H 5550 5800 50  0001 C CNN "Link"
	1    5550 5800
	1    0    0    -1  
$EndComp
$Comp
L Device:C C17
U 1 1 5CDD8EDC
P 5400 6150
F 0 "C17" V 5515 6196 50  0000 L CNN
F 1 ".1uF" V 5500 6000 50  0000 L CNN
F 2 "Capacitor_SMD:C_0805_2012Metric" H 5438 6000 50  0001 C CNN
F 3 "~" H 5400 6150 50  0001 C CNN
	1    5400 6150
	0    1    1    0   
$EndComp
$Comp
L Device:C C16
U 1 1 5CDD99E3
P 5400 5450
F 0 "C16" V 5515 5496 50  0000 L CNN
F 1 ".1uF" V 5550 5350 50  0000 L CNN
F 2 "Capacitor_SMD:C_0805_2012Metric" H 5438 5300 50  0001 C CNN
F 3 "~" H 5400 5450 50  0001 C CNN
	1    5400 5450
	0    1    1    0   
$EndComp
Wire Wire Line
	5550 5450 5550 5650
Wire Wire Line
	5550 5950 5550 6150
Wire Wire Line
	5250 5450 5250 5850
Wire Wire Line
	5250 6150 5250 5950
Text GLabel 5550 5600 2    50   Input ~ 0
BBSW1
Text GLabel 4900 5650 2    50   Input ~ 0
BBSW1
Text GLabel 5550 6000 2    50   Input ~ 0
BBSW2
Text GLabel 3700 5650 0    50   Input ~ 0
BBSW2
Wire Wire Line
	5250 5850 4900 5850
Wire Wire Line
	5250 5950 4900 5950
Text GLabel 6300 6450 2    50   Input ~ 0
REGIn
$Comp
L Device:C C13
U 1 1 5CE16D96
P 5300 6600
F 0 "C13" H 5415 6646 50  0000 L CNN
F 1 "10u" H 5415 6555 50  0000 L CNN
F 2 "Capacitor_SMD:C_1206_3216Metric" H 5338 6450 50  0001 C CNN
F 3 "http://www.samsungsem.com/kr/support/product-search/mlcc/__icsFiles/afieldfile/2019/05/10/19-CL31A106MBHNNNE.pdf" H 5300 6600 50  0001 C CNN
F 4 "1276-6736-1-ND" H 5300 6600 50  0001 C CNN "Digikey"
	1    5300 6600
	1    0    0    -1  
$EndComp
Text GLabel 5300 6450 0    50   Input ~ 0
Vout
$Comp
L power:GND #PWR0128
U 1 1 5CE18A80
P 5300 6750
F 0 "#PWR0128" H 5300 6500 50  0001 C CNN
F 1 "GND" H 5305 6577 50  0000 C CNN
F 2 "" H 5300 6750 50  0001 C CNN
F 3 "" H 5300 6750 50  0001 C CNN
	1    5300 6750
	1    0    0    -1  
$EndComp
Text GLabel 3700 5550 0    50   Input ~ 0
REGIn
Text GLabel 4900 5750 2    50   Input ~ 0
REGIn
Text GLabel 4900 6150 2    50   Input ~ 0
REGIn
$Comp
L Device:R R21
U 1 1 5CDCF959
P 3400 6400
F 0 "R21" H 3470 6446 50  0000 L CNN
F 1 "121k" V 3400 6300 50  0000 L CNN
F 2 "Resistor_SMD:R_0805_2012Metric" V 3330 6400 50  0001 C CNN
F 3 "~" H 3400 6400 50  0001 C CNN
	1    3400 6400
	1    0    0    -1  
$EndComp
$Comp
L power:GND #PWR0129
U 1 1 5CDD080E
P 3700 6350
F 0 "#PWR0129" H 3700 6100 50  0001 C CNN
F 1 "GND" H 3705 6177 50  0000 C CNN
F 2 "" H 3700 6350 50  0001 C CNN
F 3 "" H 3700 6350 50  0001 C CNN
	1    3700 6350
	1    0    0    -1  
$EndComp
$Comp
L power:GND #PWR0130
U 1 1 5CDD0B42
P 3400 6550
F 0 "#PWR0130" H 3400 6300 50  0001 C CNN
F 1 "GND" H 3405 6377 50  0000 C CNN
F 2 "" H 3400 6550 50  0001 C CNN
F 3 "" H 3400 6550 50  0001 C CNN
	1    3400 6550
	1    0    0    -1  
$EndComp
Wire Wire Line
	3700 6250 3400 6250
$Comp
L power:GND #PWR0131
U 1 1 5CDD8275
P 4900 6350
F 0 "#PWR0131" H 4900 6100 50  0001 C CNN
F 1 "GND" H 4905 6177 50  0000 C CNN
F 2 "" H 4900 6350 50  0001 C CNN
F 3 "" H 4900 6350 50  0001 C CNN
	1    4900 6350
	1    0    0    -1  
$EndComp
$Comp
L power:GND #PWR0132
U 1 1 5CDD8506
P 4950 5350
F 0 "#PWR0132" H 4950 5100 50  0001 C CNN
F 1 "GND" H 4955 5177 50  0000 C CNN
F 2 "" H 4950 5350 50  0001 C CNN
F 3 "" H 4950 5350 50  0001 C CNN
	1    4950 5350
	-1   0    0    1   
$EndComp
Wire Wire Line
	4950 5350 4950 5450
Wire Wire Line
	4950 5450 4900 5450
$Comp
L power:GND #PWR0133
U 1 1 5CDE061D
P 3650 5350
F 0 "#PWR0133" H 3650 5100 50  0001 C CNN
F 1 "GND" H 3655 5177 50  0000 C CNN
F 2 "" H 3650 5350 50  0001 C CNN
F 3 "" H 3650 5350 50  0001 C CNN
	1    3650 5350
	-1   0    0    1   
$EndComp
Wire Wire Line
	3650 5350 3650 5450
Wire Wire Line
	3650 5450 3700 5450
$Comp
L power:GND #PWR0134
U 1 1 5CDE831B
P 3150 6000
F 0 "#PWR0134" H 3150 5750 50  0001 C CNN
F 1 "GND" H 3250 5900 50  0000 C CNN
F 2 "" H 3150 6000 50  0001 C CNN
F 3 "" H 3150 6000 50  0001 C CNN
	1    3150 6000
	1    0    0    -1  
$EndComp
Wire Wire Line
	3700 5850 3600 5850
Wire Wire Line
	3600 5850 3600 5950
Wire Wire Line
	3600 5950 3700 5950
$Comp
L Device:C C12
U 1 1 5CE1317E
P 3150 5850
F 0 "C12" H 3150 5950 50  0000 L CNN
F 1 "330u" H 3200 5750 50  0000 L CNN
F 2 "CAP_TPG:6TPB330M" H 3188 5700 50  0001 C CNN
F 3 "https://industrial.panasonic.com/cdbs/www-data/pdf/AAA8000/AAA8000C65.pdf" H 3150 5850 50  0001 C CNN
F 4 "P16617CT-ND" H 3150 5850 50  0001 C CNN "Digikey"
	1    3150 5850
	1    0    0    -1  
$EndComp
Wire Wire Line
	3300 5750 3300 5700
Wire Wire Line
	3300 5700 3150 5700
$Comp
L power:+5V #PWR0135
U 1 1 5CE376FD
P 1600 5550
F 0 "#PWR0135" H 1600 5400 50  0001 C CNN
F 1 "+5V" H 1600 5700 50  0000 C CNN
F 2 "" H 1600 5550 50  0001 C CNN
F 3 "" H 1600 5550 50  0001 C CNN
	1    1600 5550
	1    0    0    -1  
$EndComp
$Comp
L Device:R R14
U 1 1 5CE3837D
P 2850 6000
F 0 "R14" H 2920 6046 50  0000 L CNN
F 1 "1M" V 2850 5950 50  0000 L CNN
F 2 "Resistor_SMD:R_0805_2012Metric" V 2780 6000 50  0001 C CNN
F 3 "~" H 2850 6000 50  0001 C CNN
	1    2850 6000
	1    0    0    -1  
$EndComp
$Comp
L Device:R R13
U 1 1 5CE38E3E
P 2500 6300
F 0 "R13" H 2570 6346 50  0000 L CNN
F 1 "249k" V 2500 6200 50  0000 L CNN
F 2 "Resistor_SMD:R_0805_2012Metric" V 2430 6300 50  0001 C CNN
F 3 "~" H 2500 6300 50  0001 C CNN
	1    2500 6300
	1    0    0    -1  
$EndComp
$Comp
L power:GND #PWR0136
U 1 1 5CE39004
P 2500 6450
F 0 "#PWR0136" H 2500 6200 50  0001 C CNN
F 1 "GND" H 2505 6277 50  0000 C CNN
F 2 "" H 2500 6450 50  0001 C CNN
F 3 "" H 2500 6450 50  0001 C CNN
	1    2500 6450
	1    0    0    -1  
$EndComp
Wire Wire Line
	3700 6150 2850 6150
Connection ~ 2500 6150
$Comp
L Device:C C10
U 1 1 5CE4B17A
P 2200 6150
F 0 "C10" V 2050 6100 50  0000 L CNN
F 1 "3300pF" V 2350 5950 50  0000 L CNN
F 2 "Capacitor_SMD:C_0805_2012Metric" H 2238 6000 50  0001 C CNN
F 3 "~" H 2200 6150 50  0001 C CNN
	1    2200 6150
	0    1    1    0   
$EndComp
$Comp
L Device:R R9
U 1 1 5CE4C50C
P 1900 6150
F 0 "R9" V 1800 6150 50  0000 C CNN
F 1 "93.1k" V 1900 6150 50  0000 C CNN
F 2 "Resistor_SMD:R_0805_2012Metric" V 1830 6150 50  0001 C CNN
F 3 "~" H 1900 6150 50  0001 C CNN
	1    1900 6150
	0    1    1    0   
$EndComp
Wire Wire Line
	2500 6150 2350 6150
$Comp
L Device:C C9
U 1 1 5CE5E8A1
P 2050 6450
F 0 "C9" V 2000 6300 50  0000 L CNN
F 1 "27pF" V 2200 6350 50  0000 L CNN
F 2 "Capacitor_SMD:C_0805_2012Metric" H 2088 6300 50  0001 C CNN
F 3 "~" H 2050 6450 50  0001 C CNN
	1    2050 6450
	0    1    1    0   
$EndComp
Wire Wire Line
	2350 6150 2350 6450
Wire Wire Line
	2350 6450 2200 6450
Connection ~ 2350 6150
Wire Wire Line
	1900 6450 1750 6450
Wire Wire Line
	1750 6450 1750 6150
Text GLabel 1750 6150 0    50   Input ~ 0
REGVC
Text GLabel 3700 6050 0    50   Input ~ 0
REGVC
Connection ~ 2850 6150
Wire Wire Line
	2850 6150 2500 6150
Wire Wire Line
	3150 5700 2850 5700
Wire Wire Line
	2850 5700 2850 5850
Connection ~ 3150 5700
$Comp
L Device:C C11
U 1 1 5CE7CBD8
P 2500 5700
F 0 "C11" H 2500 5800 50  0000 L CNN
F 1 "82pF" H 2550 5600 50  0000 L CNN
F 2 "Capacitor_SMD:C_0805_2012Metric" H 2538 5550 50  0001 C CNN
F 3 "~" H 2500 5700 50  0001 C CNN
	1    2500 5700
	1    0    0    -1  
$EndComp
$Comp
L Device:R R12
U 1 1 5CE7D2E9
P 2500 6000
F 0 "R12" H 2570 6046 50  0000 L CNN
F 1 "249k" V 2500 5900 50  0000 L CNN
F 2 "Resistor_SMD:R_0805_2012Metric" V 2430 6000 50  0001 C CNN
F 3 "~" H 2500 6000 50  0001 C CNN
	1    2500 6000
	1    0    0    -1  
$EndComp
Wire Wire Line
	2850 5700 2850 5550
Wire Wire Line
	2850 5550 2500 5550
Connection ~ 2850 5700
Wire Wire Line
	2500 5550 2100 5550
Connection ~ 2500 5550
$Comp
L Device:D_Schottky D2
U 1 1 5CE92B87
P 2100 5700
F 0 "D2" V 2054 5779 50  0000 L CNN
F 1 "D_Schottky" V 2145 5779 50  0000 L CNN
F 2 "CDBA140:CDBA140-G" H 2100 5700 50  0001 C CNN
F 3 "http://www.comchiptech.com/admin/files/product/CDBA140-HF%20Thru192841.%20CDBA1100-HF%20RevB.pdf" H 2100 5700 50  0001 C CNN
F 4 "641-1015-1-ND " V 2100 5700 50  0001 C CNN "Digikey"
	1    2100 5700
	0    -1   -1   0   
$EndComp
Text GLabel 2100 5850 0    50   Input ~ 0
REGVcc
Text GLabel 4900 6250 2    50   Input ~ 0
REGVcc
Text GLabel 4900 6050 2    50   Input ~ 0
REGVcc
Text GLabel 4900 5550 2    50   Input ~ 0
REGVcc
Text GLabel 3600 5900 0    50   Input ~ 0
Off
Wire Wire Line
	1500 1250 1500 1300
Text Notes 1800 850  0    50   ~ 0
Transistors\nCSD18532Q5B
$Comp
L power:GND #PWR0139
U 1 1 5CDEE6C4
P 4300 6500
F 0 "#PWR0139" H 4300 6250 50  0001 C CNN
F 1 "GND" H 4305 6327 50  0000 C CNN
F 2 "" H 4300 6500 50  0001 C CNN
F 3 "" H 4300 6500 50  0001 C CNN
	1    4300 6500
	1    0    0    -1  
$EndComp
$Comp
L power:PWR_FLAG #FLG0102
U 1 1 5CE03EEA
P 1500 1300
F 0 "#FLG0102" H 1500 1375 50  0001 C CNN
F 1 "PWR_FLAG" V 1500 1450 50  0000 L CNN
F 2 "" H 1500 1300 50  0001 C CNN
F 3 "~" H 1500 1300 50  0001 C CNN
	1    1500 1300
	0    1    1    0   
$EndComp
Connection ~ 1500 1300
Wire Wire Line
	1500 1300 1500 1400
$Comp
L Connector:Conn_01x01_Male J1
U 1 1 5CDBB268
P 2450 1650
F 0 "J1" H 2558 1831 50  0000 C CNN
F 1 "PV+" H 2558 1740 50  0000 C CNN
F 2 "Connector_Wire:SolderWirePad_1x01_SMD_5x10mm" H 2450 1650 50  0001 C CNN
F 3 "~" H 2450 1650 50  0001 C CNN
	1    2450 1650
	1    0    0    -1  
$EndComp
Text GLabel 2650 1650 2    50   Input ~ 0
PVin
$Comp
L power:GND #PWR0101
U 1 1 5CDE58D7
P 1500 1400
F 0 "#PWR0101" H 1500 1150 50  0001 C CNN
F 1 "GND" H 1505 1227 50  0000 C CNN
F 2 "" H 1500 1400 50  0001 C CNN
F 3 "" H 1500 1400 50  0001 C CNN
	1    1500 1400
	1    0    0    -1  
$EndComp
$Comp
L Device:L L2
U 1 1 5CDCE679
P 5200 1500
F 0 "L2" V 5019 1500 50  0000 C CNN
F 1 "330uH" V 5110 1500 50  0000 C CNN
F 2 "7447709331:7447709331" H 5200 1500 50  0001 C CNN
F 3 "https://katalog.we-online.de/pbs/datasheet/7447709331.pdf" H 5200 1500 50  0001 C CNN
F 4 "732-1698-1-ND " V 5200 1500 50  0001 C CNN "Digikey"
	1    5200 1500
	0    1    1    0   
$EndComp
$Comp
L Transistor_FET:CSD18532Q5B Q2
U 1 1 5CDCF152
P 5450 1800
F 0 "Q2" H 5656 1846 50  0000 L CNN
F 1 "CSD18532Q5B" H 4950 2000 50  0000 L CNN
F 2 "Package_TO_SOT_SMD:TDSON-8-1" H 5650 1725 50  0001 L CIN
F 3 "http://www.ti.com/lit/gpn/csd18532q5b" V 5450 1800 50  0001 L CNN
F 4 "296-35628-1-ND " H 5450 1800 50  0001 C CNN "Digikey"
	1    5450 1800
	1    0    0    -1  
$EndComp
$Comp
L Device:L L3
U 1 1 5CDD4DCD
P 5850 1750
F 0 "L3" H 5807 1704 50  0000 R CNN
F 1 "330uH" H 5807 1795 50  0000 R CNN
F 2 "7447709331:7447709331" H 5850 1750 50  0001 C CNN
F 3 "https://katalog.we-online.de/pbs/datasheet/7447709331.pdf" H 5850 1750 50  0001 C CNN
F 4 "732-1698-1-ND" H 5850 1750 50  0001 C CNN "Digikey"
	1    5850 1750
	-1   0    0    1   
$EndComp
$Comp
L Device:D_Schottky D3
U 1 1 5CDD5528
P 6000 1500
F 0 "D3" H 6000 1284 50  0000 C CNN
F 1 "D_Schottky" H 6000 1375 50  0000 C CNN
F 2 "CDBA140:CDBA140-G" H 6000 1500 50  0001 C CNN
F 3 "http://www.comchiptech.com/admin/files/product/CDBA140-HF%20Thru192841.%20CDBA1100-HF%20RevB.pdf" H 6000 1500 50  0001 C CNN
F 4 "641-1015-1-ND " H 6000 1500 50  0001 C CNN "Digikey"
	1    6000 1500
	-1   0    0    1   
$EndComp
Wire Wire Line
	5350 1500 5550 1500
Wire Wire Line
	5550 1600 5550 1500
Wire Wire Line
	5850 1600 5850 1500
$Comp
L power:GND #PWR0102
U 1 1 5CDDD425
P 6250 1800
F 0 "#PWR0102" H 6250 1550 50  0001 C CNN
F 1 "GND" H 6255 1627 50  0000 C CNN
F 2 "" H 6250 1800 50  0001 C CNN
F 3 "" H 6250 1800 50  0001 C CNN
	1    6250 1800
	1    0    0    -1  
$EndComp
$Comp
L power:GND #PWR0103
U 1 1 5CDDDB4F
P 5850 1900
F 0 "#PWR0103" H 5850 1650 50  0001 C CNN
F 1 "GND" H 5855 1727 50  0000 C CNN
F 2 "" H 5850 1900 50  0001 C CNN
F 3 "" H 5850 1900 50  0001 C CNN
	1    5850 1900
	1    0    0    -1  
$EndComp
$Comp
L power:GND #PWR0104
U 1 1 5CDDDD86
P 5550 2000
F 0 "#PWR0104" H 5550 1750 50  0001 C CNN
F 1 "GND" H 5555 1827 50  0000 C CNN
F 2 "" H 5550 2000 50  0001 C CNN
F 3 "" H 5550 2000 50  0001 C CNN
	1    5550 2000
	1    0    0    -1  
$EndComp
Text GLabel 3950 1500 0    50   Input ~ 0
PVin
Text GLabel 5250 1800 0    50   Input ~ 0
D
Text GLabel 6900 1500 2    50   Input ~ 0
Vout
$Comp
L LTC3115:LTC3115 U3
U 1 1 5CDCCA14
P 4300 5800
F 0 "U3" H 4300 5850 50  0000 C CNN
F 1 "LTC3115" H 4300 5700 50  0000 C CNN
F 2 "custom_tssop:TSSOP-20_4.4x6.5mm_P0.65mm" H 4250 6400 50  0001 C CNN
F 3 "https://www.analog.com/media/en/technical-documentation/data-sheets/31151fb.pdf" H 4300 5800 50  0001 C CNN
F 4 "LTC3115EFE-1#PBF-ND " H 4300 5800 50  0001 C CNN "Digikey"
	1    4300 5800
	1    0    0    -1  
$EndComp
$Comp
L Transistor_FET:CSD18532Q5B Q1
U 1 1 5CDCE321
P 1600 1050
F 0 "Q1" H 1806 1096 50  0000 L CNN
F 1 "CSD18532Q5B" H 1800 950 50  0000 L CNN
F 2 "Package_TO_SOT_SMD:TDSON-8-1" H 1800 975 50  0001 L CIN
F 3 "http://www.ti.com/lit/gpn/csd18532q5b" V 1600 1050 50  0001 L CNN
F 4 "296-35628-1-ND" H 1600 1050 50  0001 C CNN "Digikey"
	1    1600 1050
	-1   0    0    -1  
$EndComp
Wire Wire Line
	3450 4450 3450 4350
NoConn ~ 3450 2900
$Comp
L power:+5V #PWR0105
U 1 1 5CDE266B
P 3100 3000
F 0 "#PWR0105" H 3100 2850 50  0001 C CNN
F 1 "+5V" V 3115 3128 50  0000 L CNN
F 2 "" H 3100 3000 50  0001 C CNN
F 3 "" H 3100 3000 50  0001 C CNN
	1    3100 3000
	0    -1   -1   0   
$EndComp
Wire Wire Line
	4550 1800 4150 1800
Wire Wire Line
	4150 1800 4150 2900
$Comp
L power:GND #PWR0108
U 1 1 5CDEB2A1
P 4550 2100
F 0 "#PWR0108" H 4550 1850 50  0001 C CNN
F 1 "GND" H 4555 1927 50  0000 C CNN
F 2 "" H 4550 2100 50  0001 C CNN
F 3 "" H 4550 2100 50  0001 C CNN
	1    4550 2100
	1    0    0    -1  
$EndComp
Wire Wire Line
	2750 2000 2650 2000
$Comp
L Device:R R3
U 1 1 5CDE8921
P 4550 1650
F 0 "R3" H 4400 1700 50  0000 L CNN
F 1 "44k" H 4350 1600 50  0000 L CNN
F 2 "Resistor_SMD:R_0805_2012Metric" V 4480 1650 50  0001 C CNN
F 3 "~" H 4550 1650 50  0001 C CNN
	1    4550 1650
	1    0    0    -1  
$EndComp
Connection ~ 4550 1800
$Comp
L Device:R R4
U 1 1 5CDE8B02
P 4550 1950
F 0 "R4" H 4400 2000 50  0000 L CNN
F 1 "13k" H 4350 1900 50  0000 L CNN
F 2 "Resistor_SMD:R_0805_2012Metric" V 4480 1950 50  0001 C CNN
F 3 "~" H 4550 1950 50  0001 C CNN
	1    4550 1950
	1    0    0    -1  
$EndComp
$Comp
L Device:R R2
U 1 1 5CDE7304
P 4250 1500
F 0 "R2" V 4150 1500 50  0000 C CNN
F 1 "1" V 4250 1500 50  0000 C CNN
F 2 "Resistor_SMD:R_0805_2012Metric" V 4180 1500 50  0001 C CNN
F 3 "~" H 4250 1500 50  0001 C CNN
	1    4250 1500
	0    1    1    0   
$EndComp
Wire Wire Line
	3950 1500 4050 1500
Wire Wire Line
	4400 1500 4550 1500
Connection ~ 4550 1500
$Comp
L power:GND #PWR0109
U 1 1 5CDF6E60
P 6800 2100
F 0 "#PWR0109" H 6800 1850 50  0001 C CNN
F 1 "GND" H 6805 1927 50  0000 C CNN
F 2 "" H 6800 2100 50  0001 C CNN
F 3 "" H 6800 2100 50  0001 C CNN
	1    6800 2100
	1    0    0    -1  
$EndComp
$Comp
L Device:R R5
U 1 1 5CDF6E66
P 6800 1650
F 0 "R5" H 6650 1700 50  0000 L CNN
F 1 "80k" V 6800 1600 50  0000 L CNN
F 2 "Resistor_SMD:R_0805_2012Metric" V 6730 1650 50  0001 C CNN
F 3 "~" H 6800 1650 50  0001 C CNN
	1    6800 1650
	1    0    0    -1  
$EndComp
$Comp
L Device:R R6
U 1 1 5CDF6E6D
P 6800 1950
F 0 "R6" H 6650 2000 50  0000 L CNN
F 1 "11.4k" V 6800 1850 50  0000 L CNN
F 2 "Resistor_SMD:R_0805_2012Metric" V 6730 1950 50  0001 C CNN
F 3 "~" H 6800 1950 50  0001 C CNN
	1    6800 1950
	1    0    0    -1  
$EndComp
Wire Wire Line
	6900 1500 6800 1500
Connection ~ 6800 1500
Wire Wire Line
	6800 1800 6500 1800
Connection ~ 6800 1800
$Comp
L MAX4172:MAX4172 U1
U 1 1 5CDFD5C4
P 3500 2000
F 0 "U1" H 3475 2375 50  0000 C CNN
F 1 "MAX4172" H 3475 2284 50  0000 C CNN
F 2 "Package_SO:SO-8_3.9x4.9mm_P1.27mm" H 3550 1700 50  0001 C CNN
F 3 "https://datasheets.maximintegrated.com/en/ds/MAX4172.pdf" H 3500 1900 50  0001 C CNN
F 4 "MAX4172ESA+-ND " H 3500 2000 50  0001 C CNN "Digikey"
	1    3500 2000
	1    0    0    -1  
$EndComp
NoConn ~ 3150 2150
NoConn ~ 3150 2050
Wire Wire Line
	4050 1500 4050 1600
Wire Wire Line
	4050 1600 3150 1600
Wire Wire Line
	3150 1600 3150 1850
Connection ~ 4050 1500
Wire Wire Line
	4050 1500 4100 1500
Wire Wire Line
	3150 1950 3050 1950
Wire Wire Line
	3050 1950 3050 1650
Wire Wire Line
	3050 1650 4400 1650
Wire Wire Line
	4400 1650 4400 1500
Connection ~ 4400 1500
$Comp
L power:+5V #PWR0110
U 1 1 5CE06868
P 4050 1850
F 0 "#PWR0110" H 4050 1700 50  0001 C CNN
F 1 "+5V" H 3850 1900 50  0000 L CNN
F 2 "" H 4050 1850 50  0001 C CNN
F 3 "" H 4050 1850 50  0001 C CNN
	1    4050 1850
	1    0    0    -1  
$EndComp
Text GLabel 3450 4450 0    50   Input ~ 0
Off
Text GLabel 3850 2150 3    50   Input ~ 0
Off
NoConn ~ 4150 4350
NoConn ~ 4150 4250
NoConn ~ 4150 4150
NoConn ~ 4150 4050
NoConn ~ 4150 3950
NoConn ~ 4150 3850
NoConn ~ 4150 3750
NoConn ~ 4150 3550
NoConn ~ 4150 3450
NoConn ~ 4150 3350
NoConn ~ 3450 3200
NoConn ~ 3450 3300
NoConn ~ 3450 3500
NoConn ~ 3450 3600
$Comp
L power:PWR_FLAG #FLG0101
U 1 1 5CE1D8B8
P 6800 1500
F 0 "#FLG0101" H 6800 1575 50  0001 C CNN
F 1 "PWR_FLAG" V 6800 1650 50  0000 L CNN
F 2 "" H 6800 1500 50  0001 C CNN
F 3 "~" H 6800 1500 50  0001 C CNN
	1    6800 1500
	1    0    0    -1  
$EndComp
$Comp
L Device:Polyfuse F1
U 1 1 5CE2AA46
P 2350 3400
F 0 "F1" V 2125 3400 50  0000 C CNN
F 1 "Polyfuse" V 2216 3400 50  0000 C CNN
F 2 "Fuse:Fuse_1206_3216Metric" H 2400 3200 50  0001 L CNN
F 3 "https://www.bourns.com/docs/Product-Datasheets/mfnsmf.pdf" H 2350 3400 50  0001 C CNN
F 4 "MF-NSMF075-2CT-ND" V 2350 3400 50  0001 C CNN "Digikey"
	1    2350 3400
	0    1    1    0   
$EndComp
$Comp
L Device:CP C4
U 1 1 5CE2CBD4
P 5700 1500
F 0 "C4" V 5955 1500 50  0000 C CNN
F 1 "100uF" V 5864 1500 50  0000 C CNN
F 2 "Capacitor_SMD:CP_Elec_6.3x7.7" H 5738 1350 50  0001 C CNN
F 3 "http://www.chemi-con.co.jp/e/catalog/pdf/bulletin/al-mzr-bulletin840a-e-140328.pdf" H 5700 1500 50  0001 C CNN
F 4 "565-4324-1-ND" V 5700 1500 50  0001 C CNN "Digikey"
	1    5700 1500
	0    -1   -1   0   
$EndComp
Connection ~ 5550 1500
Connection ~ 5850 1500
Wire Wire Line
	6150 1500 6250 1500
$Comp
L Device:CP C5
U 1 1 5CE2DCD5
P 6250 1650
F 0 "C5" H 6368 1696 50  0000 L CNN
F 1 "100uF" H 6300 1550 50  0000 L CNN
F 2 "Capacitor_SMD:CP_Elec_6.3x7.7" H 6288 1500 50  0001 C CNN
F 3 "http://www.chemi-con.co.jp/e/catalog/pdf/bulletin/al-mzr-bulletin840a-e-140328.pdf" H 6250 1650 50  0001 C CNN
F 4 "565-4324-1-ND" H 6250 1650 50  0001 C CNN "Digikey"
	1    6250 1650
	1    0    0    -1  
$EndComp
Connection ~ 6250 1500
Wire Wire Line
	6250 1500 6800 1500
$Comp
L Device:C C2
U 1 1 5CE2F285
P 3100 3150
F 0 "C2" H 2950 3200 50  0000 L CNN
F 1 ".01uF" H 3150 3250 50  0000 L CNN
F 2 "Capacitor_SMD:C_0805_2012Metric" H 3138 3000 50  0001 C CNN
F 3 "~" H 3100 3150 50  0001 C CNN
	1    3100 3150
	1    0    0    -1  
$EndComp
$Comp
L power:GND #PWR0113
U 1 1 5CE2F7FB
P 3100 3300
F 0 "#PWR0113" H 3100 3050 50  0001 C CNN
F 1 "GND" H 3105 3127 50  0000 C CNN
F 2 "" H 3100 3300 50  0001 C CNN
F 3 "" H 3100 3300 50  0001 C CNN
	1    3100 3300
	1    0    0    -1  
$EndComp
Connection ~ 3100 3000
$Comp
L Device:C C3
U 1 1 5CE3130E
P 4050 2000
F 0 "C3" H 3900 2050 50  0000 L CNN
F 1 ".01uF" H 4150 2100 50  0000 L CNN
F 2 "Capacitor_SMD:C_0805_2012Metric" H 4088 1850 50  0001 C CNN
F 3 "~" H 4050 2000 50  0001 C CNN
	1    4050 2000
	1    0    0    -1  
$EndComp
$Comp
L power:GND #PWR0114
U 1 1 5CE350D3
P 4050 2150
F 0 "#PWR0114" H 4050 1900 50  0001 C CNN
F 1 "GND" H 4050 2000 50  0000 C CNN
F 2 "" H 4050 2150 50  0001 C CNN
F 3 "" H 4050 2150 50  0001 C CNN
	1    4050 2150
	1    0    0    -1  
$EndComp
Wire Wire Line
	3100 3000 3450 3000
Wire Wire Line
	4250 3100 4150 3100
Wire Wire Line
	4150 3000 6500 3000
Wire Wire Line
	6500 1800 6500 3000
$Comp
L Device:C C1
U 1 1 5CE460F4
P 2200 3550
F 0 "C1" H 2100 3650 50  0000 L CNN
F 1 ".1uF" H 2250 3450 50  0000 L CNN
F 2 "Capacitor_SMD:C_0805_2012Metric" H 2238 3400 50  0001 C CNN
F 3 "~" H 2200 3550 50  0001 C CNN
	1    2200 3550
	1    0    0    -1  
$EndComp
$Comp
L power:GND #PWR0115
U 1 1 5CE465F2
P 2200 3700
F 0 "#PWR0115" H 2200 3450 50  0001 C CNN
F 1 "GND" H 2050 3650 50  0000 C CNN
F 2 "" H 2200 3700 50  0001 C CNN
F 3 "" H 2200 3700 50  0001 C CNN
	1    2200 3700
	1    0    0    -1  
$EndComp
Wire Wire Line
	2200 3400 2000 3400
Connection ~ 2200 3400
$Comp
L power:PWR_FLAG #FLG0103
U 1 1 5CE504B4
P 2000 3400
F 0 "#FLG0103" H 2000 3475 50  0001 C CNN
F 1 "PWR_FLAG" V 2000 3550 50  0000 L CNN
F 2 "" H 2000 3400 50  0001 C CNN
F 3 "~" H 2000 3400 50  0001 C CNN
	1    2000 3400
	1    0    0    -1  
$EndComp
Connection ~ 2000 3400
$Comp
L Device:R R1
U 1 1 5CDB790C
P 4150 4600
F 0 "R1" H 4220 4646 50  0000 L CNN
F 1 "500" H 4220 4555 50  0000 L CNN
F 2 "Resistor_SMD:R_0805_2012Metric" V 4080 4600 50  0001 C CNN
F 3 "~" H 4150 4600 50  0001 C CNN
	1    4150 4600
	1    0    0    -1  
$EndComp
$Comp
L Device:LED D1
U 1 1 5CDB74FC
P 4150 4900
F 0 "D1" V 4189 4783 50  0000 R CNN
F 1 "LED" V 4098 4783 50  0000 R CNN
F 2 "LEDs:LED_0603" H 4150 4900 50  0001 C CNN
F 3 "https://media.digikey.com/pdf/Data%20Sheets/Lite-On%20PDFs/LTST-C193TBKT-5A.pdf" H 4150 4900 50  0001 C CNN
F 4 "160-1827-1-ND" V 4150 4900 50  0001 C CNN "Digikey"
	1    4150 4900
	0    -1   -1   0   
$EndComp
Text Notes 5150 2950 0    50   ~ 0
Expect output voltages up to 40 V
Text Notes 4000 1350 0    50   ~ 0
Input voltages up to 22V
$Comp
L Device:C C6
U 1 1 5CDE1D25
P 4750 1650
F 0 "C6" H 4800 1750 50  0000 L CNN
F 1 ".1uF" H 4750 1550 50  0000 L CNN
F 2 "Capacitor_SMD:C_0805_2012Metric" H 4788 1500 50  0001 C CNN
F 3 "~" H 4750 1650 50  0001 C CNN
	1    4750 1650
	1    0    0    -1  
$EndComp
Connection ~ 4750 1500
Wire Wire Line
	4750 1500 4550 1500
Wire Wire Line
	4750 1500 5050 1500
$Comp
L power:GND #PWR01
U 1 1 5CDE21A9
P 4750 1800
F 0 "#PWR01" H 4750 1550 50  0001 C CNN
F 1 "GND" H 4755 1627 50  0000 C CNN
F 2 "" H 4750 1800 50  0001 C CNN
F 3 "" H 4750 1800 50  0001 C CNN
	1    4750 1800
	1    0    0    -1  
$EndComp
$Comp
L Device:R R7
U 1 1 5CDE6A6C
P 2100 1200
F 0 "R7" H 2170 1246 50  0000 L CNN
F 1 "100k" H 2170 1155 50  0000 L CNN
F 2 "Resistor_SMD:R_0805_2012Metric" V 2030 1200 50  0001 C CNN
F 3 "~" H 2100 1200 50  0001 C CNN
	1    2100 1200
	1    0    0    -1  
$EndComp
$Comp
L Device:R R8
U 1 1 5CDE73ED
P 2250 1050
F 0 "R8" V 2150 1050 50  0000 C CNN
F 1 "275k" V 2250 1050 50  0000 C CNN
F 2 "Resistor_SMD:R_0805_2012Metric" V 2180 1050 50  0001 C CNN
F 3 "~" H 2250 1050 50  0001 C CNN
	1    2250 1050
	0    1    1    0   
$EndComp
$Comp
L power:GND #PWR0116
U 1 1 5CDE8668
P 2100 1350
F 0 "#PWR0116" H 2100 1100 50  0001 C CNN
F 1 "GND" H 2105 1177 50  0000 C CNN
F 2 "" H 2100 1350 50  0001 C CNN
F 3 "" H 2100 1350 50  0001 C CNN
	1    2100 1350
	1    0    0    -1  
$EndComp
Wire Wire Line
	2100 1050 1800 1050
Connection ~ 2100 1050
$Comp
L arduino-pro-mini:arduino-pro-mini U2
U 1 1 5CDCAD0A
P 3800 3650
F 0 "U2" H 3450 3300 55  0000 C CNN
F 1 "arduino-pro-mini" H 3150 3200 55  0000 C CNN
F 2 "arduino-pro-mini:arduino-pro-mini" H 3700 4500 55  0001 C CNN
F 3 "" H 3700 4500 55  0001 C CNN
	1    3800 3650
	1    0    0    -1  
$EndComp
Text GLabel 4150 3650 2    50   Input ~ 0
D
NoConn ~ 4150 3200
Text GLabel 4150 5050 0    50   Input ~ 0
Off
Wire Wire Line
	3850 2150 3800 2150
Wire Wire Line
	3800 1850 4050 1850
Connection ~ 4050 1850
NoConn ~ 3800 1950
Wire Wire Line
	3800 2050 4250 2050
Wire Wire Line
	4250 2050 4250 3100
$Comp
L Device:D_Schottky D4
U 1 1 5CF6C40C
P 3450 5750
F 0 "D4" H 3100 5900 50  0000 L CNN
F 1 "D_Schottky" H 2900 5950 50  0000 L CNN
F 2 "CDBA140:CDBA140-G" H 3450 5750 50  0001 C CNN
F 3 "http://www.comchiptech.com/admin/files/product/CDBA140-HF%20Thru192841.%20CDBA1100-HF%20RevB.pdf" H 3450 5750 50  0001 C CNN
F 4 "641-1015-1-ND " V 3450 5750 50  0001 C CNN "Digikey"
	1    3450 5750
	1    0    0    -1  
$EndComp
Wire Wire Line
	1600 5550 2100 5550
Connection ~ 2100 5550
$Comp
L Device:C C7
U 1 1 5CF70B84
P 5700 6600
F 0 "C7" H 5815 6646 50  0000 L CNN
F 1 "1u" H 5815 6555 50  0000 L CNN
F 2 "Capacitor_SMD:C_0805_2012Metric" H 5738 6450 50  0001 C CNN
F 3 "" H 5700 6600 50  0001 C CNN
	1    5700 6600
	1    0    0    -1  
$EndComp
$Comp
L Device:C C8
U 1 1 5CF7105F
P 6100 6600
F 0 "C8" H 6215 6646 50  0000 L CNN
F 1 ".1u" H 6215 6555 50  0000 L CNN
F 2 "Capacitor_SMD:C_0805_2012Metric" H 6138 6450 50  0001 C CNN
F 3 "" H 6100 6600 50  0001 C CNN
	1    6100 6600
	1    0    0    -1  
$EndComp
$Comp
L power:GND #PWR0106
U 1 1 5CF71365
P 5700 6750
F 0 "#PWR0106" H 5700 6500 50  0001 C CNN
F 1 "GND" H 5705 6577 50  0000 C CNN
F 2 "" H 5700 6750 50  0001 C CNN
F 3 "" H 5700 6750 50  0001 C CNN
	1    5700 6750
	1    0    0    -1  
$EndComp
$Comp
L power:GND #PWR0117
U 1 1 5CF71685
P 6100 6750
F 0 "#PWR0117" H 6100 6500 50  0001 C CNN
F 1 "GND" H 6105 6577 50  0000 C CNN
F 2 "" H 6100 6750 50  0001 C CNN
F 3 "" H 6100 6750 50  0001 C CNN
	1    6100 6750
	1    0    0    -1  
$EndComp
Wire Wire Line
	6300 6450 6100 6450
Wire Wire Line
	6100 6450 5700 6450
Connection ~ 6100 6450
Wire Wire Line
	5700 6450 5300 6450
Connection ~ 5700 6450
Wire Wire Line
	3700 5750 3600 5750
Wire Wire Line
	1500 3400 1500 3150
Wire Wire Line
	1500 3400 2000 3400
$EndSCHEMATC
